{
  "images" : [
    {
      "filename" : "41624-7-groceries-hd-download-hd-png.png",
      "idiom" : "universal",
      "scale" : "1x"
    },
    {
      "filename" : "41624-7-groceries-hd-download-hd-png@2x.png",
      "idiom" : "universal",
      "scale" : "2x"
    },
    {
      "filename" : "41624-7-groceries-hd-download-hd-png@3x.png",
      "idiom" : "universal",
      "scale" : "3x"
    }
  ],
  "info" : {
    "author" : "xcode",
    "version" : 1
  }
}
