{
  "images" : [
    {
      "filename" : "snacks-png-transparent-images-free-free-png-images-vector-psd-snacks-png-1.png",
      "idiom" : "universal",
      "scale" : "1x"
    },
    {
      "filename" : "snacks-png-transparent-images-free-free-png-images-vector-psd-snacks-png-1@2x.png",
      "idiom" : "universal",
      "scale" : "2x"
    },
    {
      "filename" : "snacks-png-transparent-images-free-free-png-images-vector-psd-snacks-png-1@3x.png",
      "idiom" : "universal",
      "scale" : "3x"
    }
  ],
  "info" : {
    "author" : "xcode",
    "version" : 1
  }
}
